<?xml version="1.0" encoding="utf-8"?>
<!-- Generator: Adobe Illustrator 23.0.1, SVG Export Plug-In . SVG Version: 6.00 Build 0)  -->
<svg version="1.1" id="Layer_1" xmlns="http://www.w3.org/2000/svg" xmlns:xlink="http://www.w3.org/1999/xlink" x="0px" y="0px"
	 viewBox="0 0 130 130" style="enable-background:new 0 0 130 130;" xml:space="preserve">
<style type="text/css">
	.st0{fill:#FFFFFF;}
</style>
<g id="Logo__x2014__FIXED">
	<g>
		<path class="st0" d="M42.87,113.41c44.93,0,69.52-37.26,69.52-69.52c0-1.05,0-2.1-0.05-3.14c4.77-3.43,8.91-7.77,12.2-12.67
			c-4.38,1.95-9.1,3.24-14.06,3.86c5.05-3,8.91-7.81,10.77-13.53c-4.72,2.81-9.96,4.81-15.53,5.91c-4.48-4.77-10.82-7.72-17.82-7.72
			c-13.49,0-24.44,10.96-24.44,24.44c0,1.91,0.24,3.76,0.62,5.58c-20.3-1-38.31-10.77-50.37-25.54c-2.1,3.62-3.29,7.81-3.29,12.29
			c0,8.48,4.34,15.96,10.86,20.35c-4-0.14-7.77-1.24-11.05-3.05c0,0.1,0,0.19,0,0.33c0,11.82,8.43,21.73,19.58,23.97
			c-2.05,0.57-4.19,0.86-6.43,0.86c-1.57,0-3.1-0.14-4.57-0.43c3.1,9.72,12.15,16.77,22.82,16.96
			c-8.39,6.58-18.92,10.48-30.35,10.48c-1.95,0-3.91-0.1-5.81-0.33C16.23,109.36,29.1,113.41,42.87,113.41"/>
	</g>
</g>
</svg>
